Ictus y Factores_Riesgo
…
Dejamos la tabla entera tabulada

altas_hosp_ictus_tab <- altas_hospitalarias_ictus%>%
  spread_all()%>%
  enter_object("fields")%>%
  spread_all()
altas_hosp_ictus_tab

## # A tbl_json: 20,090 x 27 tibble with a "JSON" attribute
##    ..JSON document.id datasetid recordid record_timestamp fields.fecha_de_ingr…¹
##    <chr>        <int> <chr>     <chr>    <chr>            <chr>                 
##  1 "{\"f…           1 altas-ho… d642d9b… 2024-09-09T01:0… 2023-12-30T05:40:00+0…
##  2 "{\"f…           2 altas-ho… 1d47d7f… 2024-09-09T01:0… 2023-12-30T03:16:00+0…
##  3 "{\"f…           3 altas-ho… 95a004c… 2024-09-09T01:0… 2023-12-30T00:07:00+0…
##  4 "{\"f…           4 altas-ho… aab2391… 2024-09-09T01:0… 2023-12-29T18:29:00+0…
##  5 "{\"f…           5 altas-ho… 337420e… 2024-09-09T01:0… 2023-12-29T00:43:00+0…
##  6 "{\"f…           6 altas-ho… 32120d2… 2024-09-09T01:0… 2023-12-28T21:00:00+0…
##  7 "{\"f…           7 altas-ho… 4b61391… 2024-09-09T01:0… 2023-12-28T18:53:00+0…
##  8 "{\"f…           8 altas-ho… 9bb0dbc… 2024-09-09T01:0… 2023-12-28T15:25:00+0…
##  9 "{\"f…           9 altas-ho… 02c92ba… 2024-09-09T01:0… 2023-12-28T12:59:00+0…
## 10 "{\"f…          10 altas-ho… 3f05cd4… 2024-09-09T01:0… 2023-12-28T02:29:00+0…
## # ℹ 20,080 more rows
## # ℹ abbreviated name: ¹​fields.fecha_de_ingreso
## # ℹ 21 more variables: fields.ambito_de_procedencia <chr>, fields.area <chr>,
## #   fields.zona_basica_de_salud_del_paciente <chr>, fields.provincia <chr>,
## #   fields.edad <dbl>, fields.sexo <chr>, fields.fecha_de_alta <chr>,
## #   fields.dia_de_la_semana_en_la_fecha_del_ingreso <chr>,
## #   fields.dia_de_la_semana_en_la_fecha_del_alta <chr>, …

Calculamos conteo por edad:

edades_total <- altas_hospitalarias_ictus %>%
  spread_all %>%               
  enter_object("fields") %>%     
  spread_all() %>% 
  #con gather_object nos muestra 220,888 resultados
  rename(Edad = edad) %>%         
  select(Edad)
edades_total

## # A tbl_json: 20,090 x 2 tibble with a "JSON" attribute
##    ..JSON                 Edad
##    <chr>                 <dbl>
##  1 "{\"fecha_de_ingr..."    90
##  2 "{\"fecha_de_ingr..."    83
##  3 "{\"fecha_de_ingr..."    72
##  4 "{\"fecha_de_ingr..."    78
##  5 "{\"fecha_de_ingr..."    76
##  6 "{\"fecha_de_ingr..."    76
##  7 "{\"fecha_de_ingr..."    81
##  8 "{\"fecha_de_ingr..."    74
##  9 "{\"fecha_de_ingr..."    78
## 10 "{\"fecha_de_ingr..."    53
## # ℹ 20,080 more rows
…
Obtener el número de casos por provincias para empezar a relacionarlo
con los siguientes objetivos

Provincias <- altas_hospitalarias_ictus%>%
  spread_all()%>%
  enter_object(fields)%>%
  rename(Provincia=fields.provincia)%>%
  select(Provincia)
Provincias$Provincia <- ifelse(Provincias$Provincia == "Ávila", "Avila", Provincias$Provincia)
Provincias

## # A tbl_json: 20,090 x 2 tibble with a "JSON" attribute
##    ..JSON                Provincia 
##    <chr>                 <chr>     
##  1 "{\"fecha_de_ingr..." Avila     
##  2 "{\"fecha_de_ingr..." Valladolid
##  3 "{\"fecha_de_ingr..." León      
##  4 "{\"fecha_de_ingr..." Salamanca 
##  5 "{\"fecha_de_ingr..." Palencia  
##  6 "{\"fecha_de_ingr..." León      
##  7 "{\"fecha_de_ingr..." Zamora    
##  8 "{\"fecha_de_ingr..." Avila     
##  9 "{\"fecha_de_ingr..." Salamanca 
## 10 "{\"fecha_de_ingr..." Segovia   
## # ℹ 20,080 more rows
…
calidad_aire <- read_csv("INPUT/data/calidad_aire.csv")

## Rows: 2135 Columns: 10
## ── Column specification ────────────────────────────────────────────────────────
## Delimiter: ","
## chr (4): Fecha, CO (mg/m3), Provincia, Estación
## dbl (6): NO (ug/m3), NO2 (ug/m3), O3 (ug/m3), PM10 (ug/m3), PM25 (ug/m3), SO...
## 
## ℹ Use `spec()` to retrieve the full column specification for this data.
## ℹ Specify the column types or set `show_col_types = FALSE` to quiet this message.

calidad_aire

## # A tibble: 2,135 × 10
##    Fecha   `CO (mg/m3)` `NO (ug/m3)` `NO2 (ug/m3)` `O3 (ug/m3)` `PM10 (ug/m3)`
##    <chr>   <chr>               <dbl>         <dbl>        <dbl>          <dbl>
##  1 10/2019 <NA>                    2             5           52             11
##  2 10/2019 <NA>                    5            15           43             20
##  3 10/2019 0,2                     6            18           NA             17
##  4 10/2019 <NA>                    4            10           54              9
##  5 10/2019 <NA>                    2             3           56             NA
##  6 10/2019 <NA>                    6            16           NA             21
##  7 10/2019 <NA>                    5            14           46             16
##  8 10/2019 <NA>                    2            12           NA             11
##  9 10/2019 <NA>                    2             7           48             10
## 10 10/2019 <NA>                    2             5           47             11
## # ℹ 2,125 more rows
## # ℹ 4 more variables: `PM25 (ug/m3)` <dbl>, `SO2 (ug/m3)` <dbl>,
## #   Provincia <chr>, Estación <chr>
…
    )%>%
    arrange(Fechas)

## `summarise()` has grouped output by 'Fechas', 'provincia', 'mes'. You can
## override using the `.groups` argument.

media_factores_aire

## # A tibble: 459 × 7
## # Groups:   Fechas, provincia, mes [459]
##    Fechas     provincia    mes  anyo    NO    O3  PM25
##    <date>     <chr>      <dbl> <dbl> <dbl> <dbl> <dbl>
##  1 2019-10-01 Avila         10  2019  2     52   NaN  
##  2 2019-10-01 Burgos        10  2019  4.67  49.8   4  
##  3 2019-10-01 León          10  2019  2.87  44.2 NaN  
##  4 2019-10-01 Palencia      10  2019  5.57  41.4   3.5
##  5 2019-10-01 Salamanca     10  2019  3     61     5  
##  6 2019-10-01 Segovia       10  2019  2     57   NaN  
##  7 2019-10-01 Soria         10  2019  8.5   44   NaN  
##  8 2019-10-01 Valladolid    10  2019 11.5   38.9  11  
##  9 2019-10-01 Zamora        10  2019  7     47   NaN  
## 10 2019-11-01 Avila         11  2019  2     60   NaN  
## # ℹ 449 more rows

#para poder hacer el estudio de manera correcta de la calidad del aire
altas_hosp_ictus_fecha_bien <- altas_hosp_ictus_tab %>%
  mutate(Fecha = ymd_hms(fields.fecha_de_ingreso))%>%
  mutate(mes= month(fields.fecha_de_ingreso))%>%
  mutate(anyo = year(fields.fecha_de_ingreso))

altas_hosp_ictus_fecha_bien$provincia <- ifelse(altas_hosp_ictus_fecha_bien$provincia == "Ávila", "Avila",altas_hosp_ictus_fecha_bien$provincia)
altas_hosp_ictus_fecha_bien

## # A tbl_json: 20,090 x 30 tibble with a "JSON" attribute
##    ..JSON document.id datasetid recordid record_timestamp fields.fecha_de_ingr…¹
##    <chr>        <int> <chr>     <chr>    <chr>            <chr>                 
##  1 "{\"f…           1 altas-ho… d642d9b… 2024-09-09T01:0… 2023-12-30T05:40:00+0…
##  2 "{\"f…           2 altas-ho… 1d47d7f… 2024-09-09T01:0… 2023-12-30T03:16:00+0…
##  3 "{\"f…           3 altas-ho… 95a004c… 2024-09-09T01:0… 2023-12-30T00:07:00+0…
##  4 "{\"f…           4 altas-ho… aab2391… 2024-09-09T01:0… 2023-12-29T18:29:00+0…
##  5 "{\"f…           5 altas-ho… 337420e… 2024-09-09T01:0… 2023-12-29T00:43:00+0…
##  6 "{\"f…           6 altas-ho… 32120d2… 2024-09-09T01:0… 2023-12-28T21:00:00+0…
##  7 "{\"f…           7 altas-ho… 4b61391… 2024-09-09T01:0… 2023-12-28T18:53:00+0…
##  8 "{\"f…           8 altas-ho… 9bb0dbc… 2024-09-09T01:0… 2023-12-28T15:25:00+0…
##  9 "{\"f…           9 altas-ho… 02c92ba… 2024-09-09T01:0… 2023-12-28T12:59:00+0…
## 10 "{\"f…          10 altas-ho… 3f05cd4… 2024-09-09T01:0… 2023-12-28T02:29:00+0…
## # ℹ 20,080 more rows
## # ℹ abbreviated name: ¹​fields.fecha_de_ingreso
## # ℹ 24 more variables: fields.ambito_de_procedencia <chr>, fields.area <chr>,
## #   fields.zona_basica_de_salud_del_paciente <chr>, fields.provincia <chr>,
## #   fields.edad <dbl>, fields.sexo <chr>, fields.fecha_de_alta <chr>,
## #   fields.dia_de_la_semana_en_la_fecha_del_ingreso <chr>,
## #   fields.dia_de_la_semana_en_la_fecha_del_alta <chr>, …

aire_con_ictus <- full_join(altas_hosp_ictus_fecha_bien, media_factores_aire, by = c("mes","anyo", "provincia"))
#aire_con_ictus_tab <- aire_con_ictus%>%
  
aire_con_ictus_resumen <- aire_con_ictus%>%
  rename(ambito=fields.ambito_de_procedencia,dia_semana=fields.dia_de_la_semana_en_la_fecha_del_ingreso)%>%
  select(Fechas,mes,anyo,edad,sexo,dia_semana,provincia,NO,O3,PM25,ambito)
aire_con_ictus_resumen

## # A tibble: 20,102 × 11
##    Fechas       mes  anyo  edad sexo   dia_semana provincia     NO    O3  PM25
##    <date>     <dbl> <dbl> <dbl> <chr>  <chr>      <chr>      <dbl> <dbl> <dbl>
##  1 2023-12-01    12  2023    90 Hombre Sábado     Avila       4     38   NaN  
##  2 2023-12-01    12  2023    83 Hombre Sábado     Valladolid 12.5   31    10  
##  3 2023-12-01    12  2023    72 Mujer  Viernes    León        6.88  34.5   9.5
##  4 2023-12-01    12  2023    78 Hombre Viernes    Salamanca   6.67  49.5   6  
##  5 2023-12-01    12  2023    76 Mujer  Jueves     Palencia    5.2   35.6   6  
##  6 2023-12-01    12  2023    76 Hombre Jueves     León        6.88  34.5   9.5
##  7 2023-12-01    12  2023    81 Hombre Jueves     Zamora      9     35   NaN  
##  8 2023-12-01    12  2023    74 Hombre Jueves     Avila       4     38   NaN  
##  9 2023-12-01    12  2023    78 Hombre Jueves     Salamanca   6.67  49.5   6  
## 10 2023-12-01    12  2023    53 Hombre Jueves     Segovia     6     42   NaN  
## # ℹ 20,092 more rows
## # ℹ 1 more variable: ambito <chr>

calucla_media_sustancias_por_provincia_y_meses <-aire_con_ictus_resumen %>%
  group_by(provincia, anyo, mes) %>%  
  summarize(num_ictus=n(),
            avg_NO = mean(NO, na.rm = TRUE),
            avg_O3=mean(O3, na.rm = TRUE),
            avg_PM25=mean(PM25, na.rm = TRUE)) 

## `summarise()` has grouped output by 'provincia', 'anyo'. You can override using
## the `.groups` argument.

calucla_media_sustancias_por_provincia_y_meses

## # A tibble: 459 × 7
## # Groups:   provincia, anyo [45]
##    provincia  anyo   mes num_ictus avg_NO avg_O3 avg_PM25
##    <chr>     <dbl> <dbl>     <int>  <dbl>  <dbl>    <dbl>
##  1 Avila      2019    10         1      2     52      NaN
##  2 Avila      2019    11         1      2     60      NaN
##  3 Avila      2019    12         6      6     43      NaN
##  4 Avila      2020     1        24      5     46      NaN
##  5 Avila      2020     2        17      5     42      NaN
##  6 Avila      2020     3        29      3     66      NaN
##  7 Avila      2020     4        19      2     65      NaN
##  8 Avila      2020     5        20      2     69      NaN
##  9 Avila      2020     6        37      3     72      NaN
## 10 Avila      2020     7        24      2     89      NaN
## # ℹ 449 more rows
…
##      Avila     Burgos       León   Palencia  Salamanca    Segovia      Soria 
##   99.26266   99.21986   99.21685   99.32567   98.85566   99.26480   99.32870 
## Valladolid     Zamora 
##   99.12244   99.10979

#Importamos los datos de los centros de desintoxicación Visionamos
los datos y vemos que con hacer un spread_all podemos obtener lo que
necesitamos para nuestro trabajo.

centros_servicios_saisde <- fromJSON(file = "INPUT/data/centros_servicios_saisde.json")
spread_all(centros_servicios_saisde)

## # A tbl_json: 99 x 22 tibble with a "JSON" attribute
##    ..JSON        document.id datasetid recordid record_timestamp fields.posicion
##    <chr>               <int> <chr>     <chr>    <chr>                      <dbl>
##  1 "{\"dataseti…           1 centros-… a42164a… 2024-04-09T16:1…              NA
##  2 "{\"dataseti…           2 centros-… 3f4b02d… 2024-04-09T16:1…              NA
##  3 "{\"dataseti…           3 centros-… 4118619… 2024-04-09T16:1…              NA
##  4 "{\"dataseti…           4 centros-… 7b8fef6… 2024-04-09T16:1…              NA
##  5 "{\"dataseti…           5 centros-… aa67d45… 2024-04-09T16:1…              NA
##  6 "{\"dataseti…           6 centros-… 536cdf6… 2024-04-09T16:1…              NA
##  7 "{\"dataseti…           7 centros-… ba153c0… 2024-04-09T16:1…              NA
##  8 "{\"dataseti…           8 centros-… 557ce5f… 2024-04-09T16:1…              NA
##  9 "{\"dataseti…           9 centros-… 96ef383… 2024-04-09T16:1…              NA
## 10 "{\"dataseti…          10 centros-… 1706963… 2024-04-09T16:1…              NA
## # ℹ 89 more rows
## # ℹ 16 more variables: fields.e_mail <chr>, fields.provincia_abreviado <chr>,
## #   fields.entidad_dependencia_institucional <chr>, fields.c_postal <chr>,
## #   fields.tipo_de_recurso <chr>, fields.telefono <chr>,
## #   fields.nivel_asistencial <chr>, fields.fax <chr>, fields.localidad <chr>,
## #   fields.longitud <dbl>, fields.direccion <chr>, fields.provincia <chr>,
## #   fields.latitud <dbl>, geometry.type <chr>, geometry.coordinates <dbl>, …
…
